problhma3/simulation/qsim/problhma3.msim.vcd
$comment
	File created using the following command:
		vcd file problhma3.msim.vcd -direction
$end
$date
	Tue Mar 31 19:54:02 2020
$end
$version
	ModelSim Version 10.1d
$end
$timescale
	1ps
$end
$scope module problhma3_vlg_vec_tst $end
$var reg 1 ! x1 $end
$var reg 1 " x2 $end
$var reg 1 # x3 $end
$var wire 1 $ f $end
$var wire 1 % sampler $end
$scope module i1 $end
$var wire 1 & gnd $end
$var wire 1 ' vcc $end
$var wire 1 ( unknown $end
$var tri1 1 ) devclrn $end
$var tri1 1 * devpor $end
$var tri1 1 + devoe $end
$var wire 1 , x2~combout $end
$var wire 1 - x3~combout $end
$var wire 1 . x1~combout $end
$var wire 1 / f~0_combout $end
$upscope $end
$upscope $end
$enddefinitions $end
#0
$dumpvars
0!
0"
0#
0$
x%
0&
1'
x(
1)
1*
1+
0,
0-
0.
0/
$end
#10000
1#
1-
0%
1/
1$
#20000
1"
0#
1,
0-
1%
#30000
1#
1-
0%
#40000
1!
0"
0#
1.
0,
0-
1%
0/
0$
#50000
1#
1-
0%
#60000
1"
0#
1,
0-
1%
1/
1$
#70000
1#
1-
0%
