problhma1/simulation/qsim/problhma1.msim.vcd
$comment
	File created using the following command:
		vcd file problhma1.msim.vcd -direction
$end
$date
	Tue Mar 31 17:40:50 2020
$end
$version
	ModelSim Version 10.1d
$end
$timescale
	1ps
$end
$scope module problhma1_vlg_vec_tst $end
$var reg 1 ! x1 $end
$var reg 1 " x2 $end
$var reg 1 # x3 $end
$var reg 1 $ x4 $end
$var reg 1 % x5 $end
$var wire 1 & f $end
$var wire 1 ' sampler $end
$scope module i1 $end
$var wire 1 ( gnd $end
$var wire 1 ) vcc $end
$var wire 1 * unknown $end
$var tri1 1 + devclrn $end
$var tri1 1 , devpor $end
$var tri1 1 - devoe $end
$var wire 1 . x5~combout $end
$var wire 1 / x2~combout $end
$var wire 1 0 x1~combout $end
$var wire 1 1 x3~combout $end
$var wire 1 2 I4|f~combout $end
$upscope $end
$upscope $end
$enddefinitions $end
#0
$dumpvars
0!
0"
0#
0$
0%
1&
x'
0(
1)
x*
1+
1,
1-
0.
0/
00
01
12
$end
#10000
1%
1.
0'
#20000
1$
0%
0.
1'
#30000
1%
1.
0'
#40000
1#
0$
0%
11
0.
1'
#50000
1%
1.
0'
#60000
1$
0%
0.
1'
#70000
1%
1.
0'
#80000
1"
0#
0$
0%
1/
01
0.
1'
#90000
1%
1.
0'
#100000
1$
0%
0.
1'
#110000
1%
1.
0'
#120000
1#
0$
0%
11
0.
1'
02
0&
#130000
1%
1.
0'
#140000
1$
0%
0.
1'
#150000
1%
1.
0'
#160000
1!
0"
0#
0$
0%
10
0/
01
0.
1'
#170000
1%
1.
0'
#180000
1$
0%
0.
1'
#190000
1%
1.
0'
#200000
1#
0$
0%
11
0.
1'
#210000
1%
1.
0'
#220000
1$
0%
0.
1'
#230000
1%
1.
0'
#240000
1"
0#
0$
0%
1/
01
0.
1'
12
1&
#250000
1%
1.
0'
#260000
1$
0%
0.
1'
#270000
1%
1.
0'
#280000
1#
0$
0%
11
0.
1'
02
0&
#290000
1%
1.
0'
12
1&
#300000
1$
0%
0.
1'
02
0&
#310000
1%
1.
0'
12
1&
